<svg xmlns="http://www.w3.org/2000/svg" width="277.471" height="179.569" viewBox="0 0 277.471 179.569">
  <g id="Group_11670" data-name="Group 11670" transform="translate(0 0)">
    <path id="Path_36919" data-name="Path 36919" d="M467.523,179.539a4.055,4.055,0,0,1-2.39,5.16,3.983,3.983,0,0,1-.679.187l-2.3,14.093-5.4-4.985,3.013-12.618a4.069,4.069,0,0,1,3.565-4.465,3.962,3.962,0,0,1,4.191,2.628Z" transform="translate(-365.11 -176.885)" fill="#ffb6b6"/>
    <path id="Path_36920" data-name="Path 36920" d="M368.31,227.776s4.19-5.536,19.4-5.385l8.631-3.136,1.972-18.081,6.9,1.644-.986,22.354-14.793,8.547-19.4,3.945Z" transform="translate(-305.741 -193.189)" fill="#e6e7e8"/>
    <path id="Path_36921" data-name="Path 36921" d="M119.255,488.463l3.983,1.7,8.443-14.556-5.879-2.5Z" transform="translate(-80.051 -317.571)" fill="#ffb6b6"/>
    <path id="Path_36922" data-name="Path 36922" d="M219.381,497.2h4.33l2.06-16.7h-6.39Z" transform="translate(-147.261 -322.537)" fill="#ffb6b6"/>
    <path id="Path_36923" data-name="Path 36923" d="M396.9,707.23h13.315v-.168a5.183,5.183,0,0,0-5.182-5.182h0l-2.432-1.845-4.538,1.845H396.9Z" transform="translate(-324.932 -528.052)" fill="#2f2e41"/>
    <path id="Path_36924" data-name="Path 36924" d="M289.869,695.463l12.249,5.22.066-.155a5.183,5.183,0,0,0-2.736-6.8h0l-1.514-2.651-4.9-.081-1.069-.456Z" transform="translate(-253.087 -521.68)" fill="#2f2e41"/>
    <path id="Path_36925" data-name="Path 36925" d="M338.259,401.877l6.58,40.068-1.791,5.971,2.35,4.229-3.451,37.138,1.4,3.084-3.914,2.414h-7.964l-.423-33.621-1.967-4.936V453.5l-4-20.5-.737,23.451-1.165,4.944.979,3.52-1.279,2.466-10.957,23.528h-8.93l.691-5.321h0c-1.6-.81,2.4-3.178,2.787-4.929l-1.315-2.959,1.315-5.589,1.206-10.92L306.4,438.143,307,407.1l10.447-7.989Z" transform="translate(-261.892 -326.057)" fill="#2f2e41"/>
    <circle id="ab6171fa-7d69-4734-b81c-8dff60f9761b" cx="9.025" cy="9.025" r="9.025" transform="translate(51.318 5.003)" fill="#ffb6b6"/>
    <path id="Path_36926" data-name="Path 36926" d="M308.552,311.33a.171.171,0,0,1-.047-.006c-.167-.047-.3-.083.3-5.282l.649-4.11-.634-3.629-1.066-1.066,1.713-1.713-1.05-7.768-2.853-15.071a12.023,12.023,0,0,1,6.6-13.063l5.617-5.21,10.336-.077,3.307,4.3,8.749,2.972-1.451,30.012,1.018,2.374-.087.079c-.007.006-.685.619-.989.956a9.635,9.635,0,0,0,.471,3.1l.438,3.279-1.1.789,1.436,1.7.416,3.118-.235-.058c-.264-.066-26.46-6.438-31.359,4.239A.2.2,0,0,1,308.552,311.33Z" transform="translate(-263.484 -228.874)" fill="#e6e7e8"/>
    <path id="Path_36927" data-name="Path 36927" d="M354.28,245.141l-.115-.256.044,0Z" transform="translate(-296.246 -222.531)" fill="#2f2e41"/>
    <path id="Path_36928" data-name="Path 36928" d="M326.036,184.616a2.512,2.512,0,0,1,1.574-.68c.584.019,1.175.546,1.054,1.117a9.274,9.274,0,0,1,11.161-4.185,4.649,4.649,0,0,1,3.206,3.037,2.735,2.735,0,0,0,.345,1.121,1.28,1.28,0,0,0,1.362.345l.014,0a.426.426,0,0,1,.515.6l-.41.765a3.289,3.289,0,0,0,1.567-.033.426.426,0,0,1,.452.663,7.426,7.426,0,0,1-5.921,3.044c-1.64-.01-3.3-.575-4.892-.2a4.25,4.25,0,0,0-2.858,5.966,1.386,1.386,0,0,0-1.939.116,2.66,2.66,0,0,0-.581,2.035,9.444,9.444,0,0,0,.97,3.17,9.476,9.476,0,0,1-5.617-16.881Z" transform="translate(-274.969 -179.203)" fill="#2f2e41"/>
    <path id="Path_36929" data-name="Path 36929" d="M470.987,691.143l-2.535-4.073-.506,2.328c-.089.408-.178.822-.26,1.233-.72-.615-1.486-1.184-2.235-1.729q-3.452-2.505-6.9-5.017l.72,4.175a29.622,29.622,0,0,0,2.005,7.545c.122.266.253.529.395.786h10.7a3.448,3.448,0,0,0,.177-.736.253.253,0,0,0,0-.049C472.717,694.009,471.836,692.507,470.987,691.143Z" transform="translate(-366.316 -517.212)" fill="#f0f0f0"/>
    <path id="Path_36930" data-name="Path 36930" d="M225.92,691.143l2.535-4.073.506,2.328c.089.408.178.822.26,1.233.72-.615,1.486-1.184,2.235-1.729q3.452-2.505,6.9-5.017l-.72,4.175a29.622,29.622,0,0,1-2.005,7.545c-.122.266-.253.529-.395.786h-10.7a3.446,3.446,0,0,1-.178-.736.253.253,0,0,1,0-.049C224.191,694.009,225.072,692.507,225.92,691.143Z" transform="translate(-209.099 -517.212)" fill="#f0f0f0"/>
    <path id="Path_36931" data-name="Path 36931" d="M307.158,721.517H178.373a.391.391,0,1,1,0-.783H307.158a.391.391,0,0,1,0,.783Z" transform="translate(-177.981 -541.947)" fill="#cacaca"/>
    <path id="Path_36932" data-name="Path 36932" d="M652.167,209.685H613.1a1.522,1.522,0,1,1,0-3.044h39.062A1.523,1.523,0,0,1,652.167,209.685Z" transform="translate(-469.04 -196.858)" fill="#e4e4e4"/>
    <path id="Path_36933" data-name="Path 36933" d="M704.788,233.9H613.1a1.522,1.522,0,0,1,0-3.044h91.683A1.523,1.523,0,0,1,704.788,233.9Z" transform="translate(-469.04 -213.114)" fill="#e4e4e4"/>
    <circle id="Ellipse_603" data-name="Ellipse 603" cx="9.783" cy="9.783" r="9.783" transform="translate(257.904 5.502)" fill="#6c63ff"/>
    <path id="Path_36934" data-name="Path 36934" d="M980.528,218.073a1.088,1.088,0,0,1-.87-.435l-2.669-3.559a1.088,1.088,0,1,1,1.741-1.306l1.746,2.328,4.485-6.727a1.088,1.088,0,0,1,1.811,1.207l-5.338,8.007a1.089,1.089,0,0,1-.875.484Z" transform="translate(-714.175 -197.697)" fill="#fff"/>
    <path id="Path_36935" data-name="Path 36935" d="M503.038,195.476H478.262a1.462,1.462,0,0,0-1.46,1.46v15.426a1.462,1.462,0,0,0,1.46,1.46h24.777a1.462,1.462,0,0,0,1.46-1.46V196.936A1.462,1.462,0,0,0,503.038,195.476Zm.479,11.081a6,6,0,0,1-5.9,5.979c-2.514.033,1.391.046-1.641.046-6.934,0-14.163-.066-16.861-.109a1.36,1.36,0,0,1-1.332-1.355v-14.18a.481.481,0,0,1,.479-.48h24.776a.481.481,0,0,1,.48.479Z" transform="translate(-378.567 -189.364)" fill="#cacaca"/>
    <path id="Path_36936" data-name="Path 36936" d="M500.516,205.324H481.639a.811.811,0,0,1-.763-.538l-2.916-8.179a.81.81,0,0,1,.762-1.082l25.317-.045h0a.81.81,0,0,1,.744,1.129l-.044-.019.044.019-3.525,8.224a.809.809,0,0,1-.744.491Z" transform="translate(-379.314 -189.367)" fill="#cacaca"/>
    <circle id="Ellipse_604" data-name="Ellipse 604" cx="2.017" cy="2.017" r="2.017" transform="translate(110.052 13.94)" fill="#3f3d56"/>
    <path id="Path_36937" data-name="Path 36937" d="M652.167,341.7H613.1a1.522,1.522,0,1,1,0-3.044h39.062A1.523,1.523,0,0,1,652.167,341.7Z" transform="translate(-469.04 -285.476)" fill="#e4e4e4"/>
    <path id="Path_36938" data-name="Path 36938" d="M704.788,365.919H613.1a1.522,1.522,0,0,1,0-3.044h91.683A1.523,1.523,0,0,1,704.788,365.919Z" transform="translate(-469.04 -301.732)" fill="#e4e4e4"/>
    <circle id="Ellipse_605" data-name="Ellipse 605" cx="9.783" cy="9.783" r="9.783" transform="translate(257.904 48.901)" fill="#6c63ff"/>
    <path id="Path_36939" data-name="Path 36939" d="M980.528,350.09a1.088,1.088,0,0,1-.87-.435l-2.669-3.559a1.088,1.088,0,0,1,1.741-1.306l1.746,2.328,4.485-6.727a1.088,1.088,0,0,1,1.811,1.207l-5.338,8.007a1.089,1.089,0,0,1-.875.484Z" transform="translate(-714.175 -286.314)" fill="#fff"/>
    <path id="Path_36940" data-name="Path 36940" d="M503.038,327.493H478.262a1.462,1.462,0,0,0-1.46,1.46v15.426a1.462,1.462,0,0,0,1.46,1.46h24.777a1.462,1.462,0,0,0,1.46-1.46V328.953A1.462,1.462,0,0,0,503.038,327.493Zm.479,11.081a6,6,0,0,1-5.9,5.979c-2.514.033,1.391.045-1.641.045-6.933,0-14.163-.066-16.861-.109a1.36,1.36,0,0,1-1.332-1.355v-14.18a.481.481,0,0,1,.479-.48h24.776a.481.481,0,0,1,.48.479Z" transform="translate(-378.567 -277.982)" fill="#cacaca"/>
    <path id="Path_36941" data-name="Path 36941" d="M500.517,337.341H481.64a.811.811,0,0,1-.763-.538l-2.915-8.18a.81.81,0,0,1,.762-1.082l25.317-.045h0a.81.81,0,0,1,.744,1.129l-.044-.019.044.019-3.525,8.225A.809.809,0,0,1,500.517,337.341Z" transform="translate(-379.314 -277.985)" fill="#cacaca"/>
    <circle id="Ellipse_606" data-name="Ellipse 606" cx="2.017" cy="2.017" r="2.017" transform="translate(110.052 57.339)" fill="#3f3d56"/>
    <path id="Path_36942" data-name="Path 36942" d="M652.167,473.719H613.1a1.522,1.522,0,0,1,0-3.044h39.062A1.523,1.523,0,0,1,652.167,473.719Z" transform="translate(-469.04 -374.093)" fill="#e4e4e4"/>
    <path id="Path_36943" data-name="Path 36943" d="M704.788,497.936H613.1a1.522,1.522,0,1,1,0-3.044h91.683A1.523,1.523,0,0,1,704.788,497.936Z" transform="translate(-469.04 -390.349)" fill="#e4e4e4"/>
    <circle id="Ellipse_607" data-name="Ellipse 607" cx="9.783" cy="9.783" r="9.783" transform="translate(257.904 92.301)" fill="#6c63ff"/>
    <path id="Path_36944" data-name="Path 36944" d="M980.528,482.108a1.088,1.088,0,0,1-.87-.435l-2.669-3.559a1.088,1.088,0,0,1,1.741-1.306l1.746,2.328,4.485-6.727a1.088,1.088,0,1,1,1.811,1.207l-5.338,8.007a1.089,1.089,0,0,1-.875.484Z" transform="translate(-714.175 -374.932)" fill="#fff"/>
    <path id="Path_36945" data-name="Path 36945" d="M503.038,459.51H478.262a1.462,1.462,0,0,0-1.46,1.46V476.4a1.462,1.462,0,0,0,1.46,1.46h24.777a1.462,1.462,0,0,0,1.46-1.46V460.97A1.462,1.462,0,0,0,503.038,459.51Zm.479,11.081a6,6,0,0,1-5.9,5.979c-2.514.033,1.391.046-1.641.046-6.933,0-14.163-.066-16.861-.109a1.36,1.36,0,0,1-1.332-1.355v-14.18a.481.481,0,0,1,.479-.48h24.776a.481.481,0,0,1,.48.479Z" transform="translate(-378.567 -366.599)" fill="#cacaca"/>
    <path id="Path_36946" data-name="Path 36946" d="M500.517,469.359H481.64a.811.811,0,0,1-.763-.538l-2.915-8.179a.81.81,0,0,1,.762-1.082l25.317-.045h0a.81.81,0,0,1,.744,1.129l-.044-.019.044.019-3.525,8.224a.809.809,0,0,1-.744.491Z" transform="translate(-379.314 -366.603)" fill="#cacaca"/>
    <circle id="Ellipse_608" data-name="Ellipse 608" cx="2.017" cy="2.017" r="2.017" transform="translate(110.052 100.739)" fill="#3f3d56"/>
    <path id="Path_36947" data-name="Path 36947" d="M359.5,400.051a4.055,4.055,0,0,1-4.115-3.925,3.984,3.984,0,0,1,.042-.7l-12.6-6.72,6.459-3.5,10.974,6.919a4.069,4.069,0,0,1,3.078,4.813,3.962,3.962,0,0,1-3.839,3.121Z" transform="translate(-288.636 -316.717)" fill="#ffb6b6"/>
    <path id="Path_36948" data-name="Path 36948" d="M326.721,326.944l-21.055-8.219-3.347-16.873,1.243-9.7a9.928,9.928,0,0,1,11.382-8.547l.071.011.04.059c.161.237,3.875,5.976-1.123,20.215l.185,9.049,16.557,7.729Z" transform="translate(-261.444 -248.44)" fill="#e6e7e8"/>
  </g>
</svg>
